<?xml version="1.0" encoding="UTF-8"?>
<glyph name="itilde" format="1">
  <advance width="400"/>
  <unicode hex="0129"/>
  <outline>
    <component base="dotlessi"/>
    <component base="tilde" xOffset="-160" yOffset="80"/>
  </outline>
  <lib>
    <dict>
      <key>com.schriftgestaltung.Glyphs.ComponentInfo</key>
      <array>
        <dict>
          <key>alignment</key>
          <integer>-1</integer>
          <key>index</key>
          <integer>0</integer>
          <key>name</key>
          <string>dotlessi</string>
        </dict>
        <dict>
          <key>alignment</key>
          <integer>-1</integer>
          <key>index</key>
          <integer>1</integer>
          <key>name</key>
          <string>tilde</string>
        </dict>
      </array>
      <key>com.schriftgestaltung.Glyphs.lastChange</key>
      <string>2020-08-21 16:34:47 +0000</string>
      <key>com.typemytype.robofont.mark</key>
      <array>
        <real>0.374</real>
        <real>0.974</real>
        <real>0.983</real>
        <real>1.0</real>
      </array>
    </dict>
  </lib>
</glyph>
