<?xml version="1.0" encoding="UTF-8"?>
<glyph name="braceright" format="1">
  <advance width="480"/>
  <unicode hex="007D"/>
  <outline>
    <contour>
      <point x="240" y="800" type="line"/>
      <point x="360" y="640" type="line"/>
      <point x="400" y="520" type="line"/>
      <point x="400" y="360" type="line"/>
      <point x="480" y="280" type="line"/>
      <point x="400" y="240" type="line"/>
      <point x="360" y="200" type="line"/>
      <point x="280" y="40" type="line"/>
      <point x="120" y="-80" type="line"/>
      <point x="-40" y="-120" type="line"/>
      <point x="-80" y="-80" type="line"/>
      <point x="80" y="-40" type="line"/>
      <point x="200" y="80" type="line"/>
      <point x="240" y="200" type="line"/>
      <point x="280" y="240" type="line"/>
      <point x="360" y="280" type="line"/>
      <point x="280" y="360" type="line"/>
      <point x="280" y="600" type="line"/>
      <point x="200" y="760" type="line"/>
    </contour>
  </outline>
  <lib>
    <dict>
      <key>com.typemytype.robofont.layerData</key>
      <dict>
        <key>backgroud</key>
        <dict>
          <key>anchors</key>
          <array>
          </array>
          <key>components</key>
          <array>
          </array>
          <key>contours</key>
          <array>
            <dict>
              <key>points</key>
              <array>
                <dict>
                  <key>segmentType</key>
                  <string>line</string>
                  <key>smooth</key>
                  <false/>
                  <key>x</key>
                  <integer>240</integer>
                  <key>y</key>
                  <integer>-120</integer>
                </dict>
                <dict>
                  <key>segmentType</key>
                  <string>line</string>
                  <key>smooth</key>
                  <false/>
                  <key>x</key>
                  <integer>120</integer>
                  <key>y</key>
                  <integer>40</integer>
                </dict>
                <dict>
                  <key>segmentType</key>
                  <string>line</string>
                  <key>smooth</key>
                  <false/>
                  <key>x</key>
                  <integer>80</integer>
                  <key>y</key>
                  <integer>160</integer>
                </dict>
                <dict>
                  <key>segmentType</key>
                  <string>line</string>
                  <key>smooth</key>
                  <false/>
                  <key>x</key>
                  <integer>80</integer>
                  <key>y</key>
                  <integer>320</integer>
                </dict>
                <dict>
                  <key>segmentType</key>
                  <string>line</string>
                  <key>smooth</key>
                  <false/>
                  <key>x</key>
                  <integer>120</integer>
                  <key>y</key>
                  <integer>480</integer>
                </dict>
                <dict>
                  <key>segmentType</key>
                  <string>line</string>
                  <key>smooth</key>
                  <false/>
                  <key>x</key>
                  <integer>240</integer>
                  <key>y</key>
                  <integer>640</integer>
                </dict>
                <dict>
                  <key>segmentType</key>
                  <string>line</string>
                  <key>smooth</key>
                  <false/>
                  <key>x</key>
                  <integer>400</integer>
                  <key>y</key>
                  <integer>760</integer>
                </dict>
                <dict>
                  <key>segmentType</key>
                  <string>line</string>
                  <key>smooth</key>
                  <false/>
                  <key>x</key>
                  <integer>520</integer>
                  <key>y</key>
                  <integer>800</integer>
                </dict>
                <dict>
                  <key>segmentType</key>
                  <string>line</string>
                  <key>smooth</key>
                  <false/>
                  <key>x</key>
                  <integer>560</integer>
                  <key>y</key>
                  <integer>760</integer>
                </dict>
                <dict>
                  <key>segmentType</key>
                  <string>line</string>
                  <key>smooth</key>
                  <false/>
                  <key>x</key>
                  <integer>440</integer>
                  <key>y</key>
                  <integer>720</integer>
                </dict>
                <dict>
                  <key>segmentType</key>
                  <string>line</string>
                  <key>smooth</key>
                  <false/>
                  <key>x</key>
                  <integer>320</integer>
                  <key>y</key>
                  <integer>600</integer>
                </dict>
                <dict>
                  <key>segmentType</key>
                  <string>line</string>
                  <key>smooth</key>
                  <false/>
                  <key>x</key>
                  <integer>240</integer>
                  <key>y</key>
                  <integer>440</integer>
                </dict>
                <dict>
                  <key>segmentType</key>
                  <string>line</string>
                  <key>smooth</key>
                  <false/>
                  <key>x</key>
                  <integer>200</integer>
                  <key>y</key>
                  <integer>280</integer>
                </dict>
                <dict>
                  <key>segmentType</key>
                  <string>line</string>
                  <key>smooth</key>
                  <false/>
                  <key>x</key>
                  <integer>200</integer>
                  <key>y</key>
                  <integer>80</integer>
                </dict>
                <dict>
                  <key>segmentType</key>
                  <string>line</string>
                  <key>smooth</key>
                  <false/>
                  <key>x</key>
                  <integer>280</integer>
                  <key>y</key>
                  <integer>-80</integer>
                </dict>
              </array>
            </dict>
          </array>
          <key>lib</key>
          <dict>
            <key>com.typemytype.robofont.layerData</key>
            <dict>
              <key>backgroud</key>
              <dict>
                <key>anchors</key>
                <array>
                  <dict>
                    <key>name</key>
                    <string>top</string>
                    <key>x</key>
                    <integer>600</integer>
                    <key>y</key>
                    <integer>800</integer>
                  </dict>
                </array>
                <key>components</key>
                <array>
                </array>
                <key>contours</key>
                <array>
                  <dict>
                    <key>points</key>
                    <array>
                      <dict>
                        <key>segmentType</key>
                        <string>line</string>
                        <key>smooth</key>
                        <false/>
                        <key>x</key>
                        <integer>600</integer>
                        <key>y</key>
                        <integer>80</integer>
                      </dict>
                      <dict>
                        <key>segmentType</key>
                        <string>line</string>
                        <key>smooth</key>
                        <false/>
                        <key>x</key>
                        <integer>440</integer>
                        <key>y</key>
                        <integer>0</integer>
                      </dict>
                      <dict>
                        <key>segmentType</key>
                        <string>line</string>
                        <key>smooth</key>
                        <false/>
                        <key>x</key>
                        <integer>320</integer>
                        <key>y</key>
                        <integer>0</integer>
                      </dict>
                      <dict>
                        <key>segmentType</key>
                        <string>line</string>
                        <key>smooth</key>
                        <false/>
                        <key>x</key>
                        <integer>120</integer>
                        <key>y</key>
                        <integer>80</integer>
                      </dict>
                      <dict>
                        <key>segmentType</key>
                        <string>line</string>
                        <key>smooth</key>
                        <false/>
                        <key>x</key>
                        <integer>40</integer>
                        <key>y</key>
                        <integer>280</integer>
                      </dict>
                      <dict>
                        <key>segmentType</key>
                        <string>line</string>
                        <key>smooth</key>
                        <false/>
                        <key>x</key>
                        <integer>80</integer>
                        <key>y</key>
                        <integer>480</integer>
                      </dict>
                      <dict>
                        <key>segmentType</key>
                        <string>line</string>
                        <key>smooth</key>
                        <false/>
                        <key>x</key>
                        <integer>160</integer>
                        <key>y</key>
                        <integer>600</integer>
                      </dict>
                      <dict>
                        <key>segmentType</key>
                        <string>line</string>
                        <key>smooth</key>
                        <false/>
                        <key>x</key>
                        <integer>280</integer>
                        <key>y</key>
                        <integer>720</integer>
                      </dict>
                      <dict>
                        <key>segmentType</key>
                        <string>line</string>
                        <key>smooth</key>
                        <false/>
                        <key>x</key>
                        <integer>440</integer>
                        <key>y</key>
                        <integer>800</integer>
                      </dict>
                      <dict>
                        <key>segmentType</key>
                        <string>line</string>
                        <key>smooth</key>
                        <false/>
                        <key>x</key>
                        <integer>560</integer>
                        <key>y</key>
                        <integer>800</integer>
                      </dict>
                      <dict>
                        <key>segmentType</key>
                        <string>line</string>
                        <key>smooth</key>
                        <false/>
                        <key>x</key>
                        <integer>760</integer>
                        <key>y</key>
                        <integer>720</integer>
                      </dict>
                      <dict>
                        <key>segmentType</key>
                        <string>line</string>
                        <key>smooth</key>
                        <false/>
                        <key>x</key>
                        <integer>840</integer>
                        <key>y</key>
                        <integer>520</integer>
                      </dict>
                      <dict>
                        <key>segmentType</key>
                        <string>line</string>
                        <key>smooth</key>
                        <false/>
                        <key>x</key>
                        <integer>800</integer>
                        <key>y</key>
                        <integer>320</integer>
                      </dict>
                      <dict>
                        <key>segmentType</key>
                        <string>line</string>
                        <key>smooth</key>
                        <false/>
                        <key>x</key>
                        <integer>720</integer>
                        <key>y</key>
                        <integer>200</integer>
                      </dict>
                    </array>
                  </dict>
                  <dict>
                    <key>points</key>
                    <array>
                      <dict>
                        <key>segmentType</key>
                        <string>line</string>
                        <key>smooth</key>
                        <false/>
                        <key>x</key>
                        <integer>680</integer>
                        <key>y</key>
                        <integer>560</integer>
                      </dict>
                      <dict>
                        <key>segmentType</key>
                        <string>line</string>
                        <key>smooth</key>
                        <false/>
                        <key>x</key>
                        <integer>640</integer>
                        <key>y</key>
                        <integer>720</integer>
                      </dict>
                      <dict>
                        <key>segmentType</key>
                        <string>line</string>
                        <key>smooth</key>
                        <false/>
                        <key>x</key>
                        <integer>560</integer>
                        <key>y</key>
                        <integer>760</integer>
                      </dict>
                      <dict>
                        <key>segmentType</key>
                        <string>line</string>
                        <key>smooth</key>
                        <false/>
                        <key>x</key>
                        <integer>480</integer>
                        <key>y</key>
                        <integer>760</integer>
                      </dict>
                      <dict>
                        <key>segmentType</key>
                        <string>line</string>
                        <key>smooth</key>
                        <false/>
                        <key>x</key>
                        <integer>280</integer>
                        <key>y</key>
                        <integer>600</integer>
                      </dict>
                      <dict>
                        <key>segmentType</key>
                        <string>line</string>
                        <key>smooth</key>
                        <false/>
                        <key>x</key>
                        <integer>200</integer>
                        <key>y</key>
                        <integer>360</integer>
                      </dict>
                      <dict>
                        <key>segmentType</key>
                        <string>line</string>
                        <key>smooth</key>
                        <false/>
                        <key>x</key>
                        <integer>200</integer>
                        <key>y</key>
                        <integer>240</integer>
                      </dict>
                      <dict>
                        <key>segmentType</key>
                        <string>line</string>
                        <key>smooth</key>
                        <false/>
                        <key>x</key>
                        <integer>240</integer>
                        <key>y</key>
                        <integer>80</integer>
                      </dict>
                      <dict>
                        <key>segmentType</key>
                        <string>line</string>
                        <key>smooth</key>
                        <false/>
                        <key>x</key>
                        <integer>320</integer>
                        <key>y</key>
                        <integer>40</integer>
                      </dict>
                      <dict>
                        <key>segmentType</key>
                        <string>line</string>
                        <key>smooth</key>
                        <false/>
                        <key>x</key>
                        <integer>400</integer>
                        <key>y</key>
                        <integer>40</integer>
                      </dict>
                      <dict>
                        <key>segmentType</key>
                        <string>line</string>
                        <key>smooth</key>
                        <false/>
                        <key>x</key>
                        <integer>480</integer>
                        <key>y</key>
                        <integer>80</integer>
                      </dict>
                      <dict>
                        <key>segmentType</key>
                        <string>line</string>
                        <key>smooth</key>
                        <false/>
                        <key>x</key>
                        <integer>600</integer>
                        <key>y</key>
                        <integer>200</integer>
                      </dict>
                      <dict>
                        <key>segmentType</key>
                        <string>line</string>
                        <key>smooth</key>
                        <false/>
                        <key>x</key>
                        <integer>680</integer>
                        <key>y</key>
                        <integer>440</integer>
                      </dict>
                    </array>
                  </dict>
                </array>
                <key>lib</key>
                <dict>
                  <key>com.typemytype.robofont.layerData</key>
                  <dict>
                    <key>backgroud</key>
                    <dict>
                      <key>anchors</key>
                      <array>
                      </array>
                      <key>components</key>
                      <array>
                      </array>
                      <key>contours</key>
                      <array>
                        <dict>
                          <key>points</key>
                          <array>
                            <dict>
                              <key>segmentType</key>
                              <string>line</string>
                              <key>smooth</key>
                              <false/>
                              <key>x</key>
                              <integer>280</integer>
                              <key>y</key>
                              <integer>720</integer>
                            </dict>
                            <dict>
                              <key>segmentType</key>
                              <string>line</string>
                              <key>smooth</key>
                              <false/>
                              <key>x</key>
                              <integer>440</integer>
                              <key>y</key>
                              <integer>800</integer>
                            </dict>
                            <dict>
                              <key>segmentType</key>
                              <string>line</string>
                              <key>smooth</key>
                              <false/>
                              <key>x</key>
                              <integer>560</integer>
                              <key>y</key>
                              <integer>800</integer>
                            </dict>
                            <dict>
                              <key>segmentType</key>
                              <string>line</string>
                              <key>smooth</key>
                              <false/>
                              <key>x</key>
                              <integer>720</integer>
                              <key>y</key>
                              <integer>720</integer>
                            </dict>
                            <dict>
                              <key>segmentType</key>
                              <string>line</string>
                              <key>smooth</key>
                              <false/>
                              <key>x</key>
                              <integer>800</integer>
                              <key>y</key>
                              <integer>600</integer>
                            </dict>
                            <dict>
                              <key>segmentType</key>
                              <string>line</string>
                              <key>smooth</key>
                              <false/>
                              <key>x</key>
                              <integer>840</integer>
                              <key>y</key>
                              <integer>400</integer>
                            </dict>
                            <dict>
                              <key>segmentType</key>
                              <string>line</string>
                              <key>smooth</key>
                              <false/>
                              <key>x</key>
                              <integer>800</integer>
                              <key>y</key>
                              <integer>200</integer>
                            </dict>
                            <dict>
                              <key>segmentType</key>
                              <string>line</string>
                              <key>smooth</key>
                              <false/>
                              <key>x</key>
                              <integer>720</integer>
                              <key>y</key>
                              <integer>80</integer>
                            </dict>
                            <dict>
                              <key>segmentType</key>
                              <string>line</string>
                              <key>smooth</key>
                              <false/>
                              <key>x</key>
                              <integer>560</integer>
                              <key>y</key>
                              <integer>0</integer>
                            </dict>
                            <dict>
                              <key>segmentType</key>
                              <string>line</string>
                              <key>smooth</key>
                              <false/>
                              <key>x</key>
                              <integer>320</integer>
                              <key>y</key>
                              <integer>0</integer>
                            </dict>
                            <dict>
                              <key>segmentType</key>
                              <string>line</string>
                              <key>smooth</key>
                              <false/>
                              <key>x</key>
                              <integer>120</integer>
                              <key>y</key>
                              <integer>80</integer>
                            </dict>
                            <dict>
                              <key>segmentType</key>
                              <string>line</string>
                              <key>smooth</key>
                              <false/>
                              <key>x</key>
                              <integer>40</integer>
                              <key>y</key>
                              <integer>280</integer>
                            </dict>
                            <dict>
                              <key>segmentType</key>
                              <string>line</string>
                              <key>smooth</key>
                              <false/>
                              <key>x</key>
                              <integer>80</integer>
                              <key>y</key>
                              <integer>480</integer>
                            </dict>
                            <dict>
                              <key>segmentType</key>
                              <string>line</string>
                              <key>smooth</key>
                              <false/>
                              <key>x</key>
                              <integer>160</integer>
                              <key>y</key>
                              <integer>600</integer>
                            </dict>
                          </array>
                        </dict>
                        <dict>
                          <key>points</key>
                          <array>
                            <dict>
                              <key>segmentType</key>
                              <string>line</string>
                              <key>smooth</key>
                              <false/>
                              <key>x</key>
                              <integer>160</integer>
                              <key>y</key>
                              <integer>240</integer>
                            </dict>
                            <dict>
                              <key>segmentType</key>
                              <string>line</string>
                              <key>smooth</key>
                              <false/>
                              <key>x</key>
                              <integer>240</integer>
                              <key>y</key>
                              <integer>80</integer>
                            </dict>
                            <dict>
                              <key>segmentType</key>
                              <string>line</string>
                              <key>smooth</key>
                              <false/>
                              <key>x</key>
                              <integer>320</integer>
                              <key>y</key>
                              <integer>40</integer>
                            </dict>
                            <dict>
                              <key>segmentType</key>
                              <string>line</string>
                              <key>smooth</key>
                              <false/>
                              <key>x</key>
                              <integer>480</integer>
                              <key>y</key>
                              <integer>40</integer>
                            </dict>
                            <dict>
                              <key>segmentType</key>
                              <string>line</string>
                              <key>smooth</key>
                              <false/>
                              <key>x</key>
                              <integer>600</integer>
                              <key>y</key>
                              <integer>120</integer>
                            </dict>
                            <dict>
                              <key>segmentType</key>
                              <string>line</string>
                              <key>smooth</key>
                              <false/>
                              <key>x</key>
                              <integer>680</integer>
                              <key>y</key>
                              <integer>240</integer>
                            </dict>
                            <dict>
                              <key>segmentType</key>
                              <string>line</string>
                              <key>smooth</key>
                              <false/>
                              <key>x</key>
                              <integer>680</integer>
                              <key>y</key>
                              <integer>560</integer>
                            </dict>
                            <dict>
                              <key>segmentType</key>
                              <string>line</string>
                              <key>smooth</key>
                              <false/>
                              <key>x</key>
                              <integer>600</integer>
                              <key>y</key>
                              <integer>680</integer>
                            </dict>
                            <dict>
                              <key>segmentType</key>
                              <string>line</string>
                              <key>smooth</key>
                              <false/>
                              <key>x</key>
                              <integer>480</integer>
                              <key>y</key>
                              <integer>760</integer>
                            </dict>
                            <dict>
                              <key>segmentType</key>
                              <string>line</string>
                              <key>smooth</key>
                              <false/>
                              <key>x</key>
                              <integer>400</integer>
                              <key>y</key>
                              <integer>720</integer>
                            </dict>
                            <dict>
                              <key>segmentType</key>
                              <string>line</string>
                              <key>smooth</key>
                              <false/>
                              <key>x</key>
                              <integer>280</integer>
                              <key>y</key>
                              <integer>600</integer>
                            </dict>
                            <dict>
                              <key>segmentType</key>
                              <string>line</string>
                              <key>smooth</key>
                              <false/>
                              <key>x</key>
                              <integer>160</integer>
                              <key>y</key>
                              <integer>320</integer>
                            </dict>
                          </array>
                        </dict>
                      </array>
                      <key>lib</key>
                      <dict>
                        <key>com.typemytype.robofont.layerData</key>
                        <dict>
                          <key>backgroud</key>
                          <dict>
                            <key>anchors</key>
                            <array>
                            </array>
                            <key>components</key>
                            <array>
                            </array>
                            <key>contours</key>
                            <array>
                            </array>
                            <key>lib</key>
                            <dict>
                            </dict>
                            <key>name</key>
                            <string>D</string>
                            <key>unicodes</key>
                            <array>
                            </array>
                            <key>width</key>
                            <integer>840</integer>
                          </dict>
                        </dict>
                      </dict>
                      <key>name</key>
                      <string>O</string>
                      <key>unicodes</key>
                      <array>
                      </array>
                      <key>width</key>
                      <integer>840</integer>
                    </dict>
                  </dict>
                </dict>
                <key>name</key>
                <string>parenleft</string>
                <key>unicodes</key>
                <array>
                </array>
                <key>width</key>
                <integer>480</integer>
              </dict>
            </dict>
          </dict>
          <key>name</key>
          <string>braceright</string>
          <key>unicodes</key>
          <array>
          </array>
          <key>width</key>
          <integer>480</integer>
        </dict>
      </dict>
      <key>com.typemytype.robofont.mark</key>
      <array>
        <real>1.0</real>
        <real>0.98</real>
        <real>0.163</real>
        <real>1.0</real>
      </array>
    </dict>
  </lib>
</glyph>
